{
    "prepare_queue": {
        "installed": [],
        "uninstalled": []
    },
    "config_munge": {
        "files": {}
    },
    "installed_plugins": {
        "cordova-plugin-whitelist": {
            "PACKAGE_NAME": "com.fullmetalworkshop.openstory"
        },
        "cordova-plugin-console": {
            "PACKAGE_NAME": "com.fullmetalworkshop.openstory"
        },
        "cordova-plugin-geolocation": {
            "GEOLOCATION_USAGE_DESCRIPTION": " ",
            "PACKAGE_NAME": "com.fullmetalworkshop.openstory"
        },
        "cordova-plugin-googlemaps": {
            "API_KEY_FOR_IOS": "AIzaSyB_0ZBZ3P0aovAn7A9V2t_Vt7cicFIQeqI",
            "NSLOCATIONWHENINUSEUSAGEDESCRIPTION": "Show your location on the map",
            "NSLOCATIONALWAYSUSAGEDESCRIPTION": "Trace your location on the map",
            "PACKAGE_NAME": "com.fullmetalworkshop.openstory"
        },
        "cordova-plugin-camera": {
            "CAMERA_USAGE_DESCRIPTION": " ",
            "PHOTOLIBRARY_USAGE_DESCRIPTION": " ",
            "PACKAGE_NAME": "com.fullmetalworkshop.openstory"
        },
        "cordova-plugin-crop": {
            "PACKAGE_NAME": "com.fullmetalworkshop.openstory"
        }
    },
    "dependent_plugins": {
        "cordova-plugin-compat": {
            "PACKAGE_NAME": "com.fullmetalworkshop.openstory"
        },
        "com.googlemaps.ios": {
            "PACKAGE_NAME": "com.fullmetalworkshop.openstory"
        }
    }
}