{
    "prepare_queue": {
        "installed": [],
        "uninstalled": []
    },
    "config_munge": {
        "files": {
            "config.xml": {
                "parents": {
                    "/*": [
                        {
                            "xml": "<feature name=\"Camera\"><param name=\"browser-package\" value=\"Camera\" /></feature>",
                            "count": 1
                        }
                    ]
                }
            }
        }
    },
    "installed_plugins": {
        "cordova-plugin-whitelist": {
            "PACKAGE_NAME": "com.fullmetalworkshop.openstory"
        },
        "cordova-plugin-console": {
            "PACKAGE_NAME": "com.fullmetalworkshop.openstory"
        },
        "cordova-plugin-googlemaps": {
            "PACKAGE_NAME": "com.fullmetalworkshop.openstory"
        },
        "cordova-plugin-geolocation": {
            "PACKAGE_NAME": "com.fullmetalworkshop.openstory"
        },
        "cordova-plugin-compat": {
            "PACKAGE_NAME": "com.fullmetalworkshop.openstory"
        },
        "cordova-plugin-camera": {
            "PACKAGE_NAME": "com.fullmetalworkshop.openstory"
        },
        "cordova-plugin-crop": {
            "PACKAGE_NAME": "com.fullmetalworkshop.openstory"
        },
        "phonegap-plugin-push": {
            "SENDER_ID": "988376707726",
            "PACKAGE_NAME": "com.fullmetalworkshop.openstory"
        },
        "cordova-plugin-gcmpushplugin": {
            "PACKAGE_NAME": "com.fullmetalworkshop.openstory"
        }
    },
    "dependent_plugins": {},
    "modules": [
        {
            "file": "plugins/cordova-plugin-googlemaps/www/googlemaps-cdv-plugin.js",
            "id": "cordova-plugin-googlemaps.cordova-plugin-googlemaps",
            "pluginId": "cordova-plugin-googlemaps",
            "clobbers": [
                "cordova-plugin-googlemaps"
            ]
        },
        {
            "file": "plugins/cordova-plugin-camera/www/CameraConstants.js",
            "id": "cordova-plugin-camera.Camera",
            "pluginId": "cordova-plugin-camera",
            "clobbers": [
                "Camera"
            ]
        },
        {
            "file": "plugins/cordova-plugin-camera/www/CameraPopoverOptions.js",
            "id": "cordova-plugin-camera.CameraPopoverOptions",
            "pluginId": "cordova-plugin-camera",
            "clobbers": [
                "CameraPopoverOptions"
            ]
        },
        {
            "file": "plugins/cordova-plugin-camera/www/Camera.js",
            "id": "cordova-plugin-camera.camera",
            "pluginId": "cordova-plugin-camera",
            "clobbers": [
                "navigator.camera"
            ]
        },
        {
            "file": "plugins/cordova-plugin-camera/src/browser/CameraProxy.js",
            "id": "cordova-plugin-camera.CameraProxy",
            "pluginId": "cordova-plugin-camera",
            "runs": true
        },
        {
            "file": "plugins/cordova-plugin-crop/www/crop.js",
            "id": "cordova-plugin-crop.CropPlugin",
            "pluginId": "cordova-plugin-crop",
            "clobbers": [
                "plugins.crop"
            ]
        },
        {
            "file": "plugins/phonegap-plugin-push/www/push.js",
            "id": "phonegap-plugin-push.PushNotification",
            "pluginId": "phonegap-plugin-push",
            "clobbers": [
                "PushNotification"
            ]
        },
        {
            "file": "plugins/phonegap-plugin-push/www/browser/push.js",
            "id": "phonegap-plugin-push.BrowserPush",
            "pluginId": "phonegap-plugin-push",
            "clobbers": [
                "PushNotification"
            ]
        },
        {
            "file": "plugins/cordova-plugin-gcmpushplugin/www/gpp.js",
            "id": "cordova-plugin-gcmpushplugin.GCMPushPlugin",
            "pluginId": "cordova-plugin-gcmpushplugin",
            "clobbers": [
                "GcmPushPlugin"
            ]
        }
    ],
    "plugin_metadata": {
        "cordova-plugin-whitelist": "1.3.2",
        "cordova-plugin-console": "1.0.6",
        "cordova-plugin-googlemaps": "1.4.0",
        "cordova-plugin-geolocation": "2.4.2",
        "cordova-plugin-compat": "1.1.0",
        "cordova-plugin-camera": "2.4.0",
        "cordova-plugin-crop": "0.3.1",
        "phonegap-plugin-push": "1.10.2",
        "cordova-plugin-gcmpushplugin": "1.2.0"
    }
}